{
  "payload": [
    { "id": 1, "subscription_id": 1, "is_active": true, "wait_for": 92 },
    { "id": 2, "subscription_id": 2, "is_active": true, "wait_for": 13 },
    { "id": 3, "subscription_id": 3, "is_active": true, "wait_for": 83 },
    { "id": 4, "subscription_id": 4, "is_active": true, "wait_for": 99 },
    { "id": 5, "subscription_id": 5, "is_active": false, "wait_for": 81 },
    { "id": 6, "subscription_id": 6, "is_active": false, "wait_for": 25 },
    { "id": 7, "subscription_id": 7, "is_active": true, "wait_for": 34 },
    { "id": 8, "subscription_id": 8, "is_active": true, "wait_for": 63 },
    { "id": 9, "subscription_id": 9, "is_active": true, "wait_for": 22 },
    { "id": 10, "subscription_id": 10, "is_active": false, "wait_for": 25 },
    { "id": 11, "subscription_id": 11, "is_active": true, "wait_for": 76 },
    { "id": 12, "subscription_id": 12, "is_active": false, "wait_for": 25 },
    { "id": 13, "subscription_id": 13, "is_active": true, "wait_for": 62 },
    { "id": 14, "subscription_id": 14, "is_active": false, "wait_for": 15 },
    { "id": 15, "subscription_id": 15, "is_active": true, "wait_for": 17 },
    { "id": 16, "subscription_id": 16, "is_active": false, "wait_for": 62 },
    { "id": 17, "subscription_id": 17, "is_active": false, "wait_for": 48 },
    { "id": 18, "subscription_id": 18, "is_active": false, "wait_for": 18 },
    { "id": 19, "subscription_id": 19, "is_active": true, "wait_for": 88 },
    { "id": 20, "subscription_id": 20, "is_active": false, "wait_for": 35 },
    { "id": 21, "subscription_id": 21, "is_active": true, "wait_for": 70 },
    { "id": 22, "subscription_id": 22, "is_active": true, "wait_for": 66 },
    { "id": 23, "subscription_id": 23, "is_active": true, "wait_for": 3 },
    { "id": 24, "subscription_id": 24, "is_active": false, "wait_for": 54 },
    { "id": 25, "subscription_id": 25, "is_active": true, "wait_for": 7 },
    { "id": 26, "subscription_id": 26, "is_active": true, "wait_for": 80 },
    { "id": 27, "subscription_id": 27, "is_active": true, "wait_for": 98 },
    { "id": 28, "subscription_id": 28, "is_active": false, "wait_for": 98 },
    { "id": 29, "subscription_id": 29, "is_active": true, "wait_for": 86 },
    { "id": 30, "subscription_id": 30, "is_active": true, "wait_for": 48 },
    { "id": 31, "subscription_id": 31, "is_active": true, "wait_for": 14 },
    { "id": 32, "subscription_id": 32, "is_active": false, "wait_for": 37 },
    { "id": 33, "subscription_id": 33, "is_active": true, "wait_for": 89 },
    { "id": 34, "subscription_id": 34, "is_active": false, "wait_for": 100 },
    { "id": 35, "subscription_id": 35, "is_active": true, "wait_for": 68 },
    { "id": 36, "subscription_id": 36, "is_active": false, "wait_for": 20 },
    { "id": 37, "subscription_id": 37, "is_active": false, "wait_for": 87 },
    { "id": 38, "subscription_id": 38, "is_active": true, "wait_for": 70 },
    { "id": 39, "subscription_id": 39, "is_active": true, "wait_for": 71 },
    { "id": 40, "subscription_id": 40, "is_active": true, "wait_for": 4 },
    { "id": 41, "subscription_id": 41, "is_active": false, "wait_for": 22 },
    { "id": 42, "subscription_id": 42, "is_active": true, "wait_for": 10 },
    { "id": 43, "subscription_id": 43, "is_active": false, "wait_for": 76 },
    { "id": 44, "subscription_id": 44, "is_active": false, "wait_for": 71 },
    { "id": 45, "subscription_id": 45, "is_active": false, "wait_for": 13 },
    { "id": 46, "subscription_id": 46, "is_active": false, "wait_for": 0 },
    { "id": 47, "subscription_id": 47, "is_active": true, "wait_for": 44 },
    { "id": 48, "subscription_id": 48, "is_active": false, "wait_for": 46 },
    { "id": 49, "subscription_id": 49, "is_active": true, "wait_for": 20 },
    { "id": 50, "subscription_id": 50, "is_active": true, "wait_for": 67 },
    { "id": 51, "subscription_id": 51, "is_active": false, "wait_for": 75 },
    { "id": 52, "subscription_id": 52, "is_active": false, "wait_for": 36 },
    { "id": 53, "subscription_id": 53, "is_active": true, "wait_for": 58 },
    { "id": 54, "subscription_id": 54, "is_active": false, "wait_for": 97 },
    { "id": 55, "subscription_id": 55, "is_active": true, "wait_for": 68 },
    { "id": 56, "subscription_id": 56, "is_active": true, "wait_for": 49 },
    { "id": 57, "subscription_id": 57, "is_active": false, "wait_for": 25 },
    { "id": 58, "subscription_id": 58, "is_active": true, "wait_for": 30 },
    { "id": 59, "subscription_id": 59, "is_active": true, "wait_for": 35 },
    { "id": 60, "subscription_id": 60, "is_active": true, "wait_for": 9 },
    { "id": 61, "subscription_id": 61, "is_active": false, "wait_for": 100 },
    { "id": 62, "subscription_id": 62, "is_active": true, "wait_for": 70 },
    { "id": 63, "subscription_id": 63, "is_active": false, "wait_for": 65 },
    { "id": 64, "subscription_id": 64, "is_active": false, "wait_for": 79 },
    { "id": 65, "subscription_id": 65, "is_active": true, "wait_for": 11 },
    { "id": 66, "subscription_id": 66, "is_active": false, "wait_for": 7 },
    { "id": 67, "subscription_id": 67, "is_active": true, "wait_for": 91 },
    { "id": 68, "subscription_id": 68, "is_active": false, "wait_for": 34 },
    { "id": 69, "subscription_id": 69, "is_active": true, "wait_for": 9 },
    { "id": 70, "subscription_id": 70, "is_active": true, "wait_for": 74 },
    { "id": 71, "subscription_id": 71, "is_active": true, "wait_for": 13 },
    { "id": 72, "subscription_id": 72, "is_active": true, "wait_for": 35 },
    { "id": 73, "subscription_id": 73, "is_active": false, "wait_for": 9 },
    { "id": 74, "subscription_id": 74, "is_active": false, "wait_for": 21 },
    { "id": 75, "subscription_id": 75, "is_active": true, "wait_for": 56 },
    { "id": 76, "subscription_id": 76, "is_active": false, "wait_for": 24 },
    { "id": 77, "subscription_id": 77, "is_active": true, "wait_for": 65 },
    { "id": 78, "subscription_id": 78, "is_active": true, "wait_for": 28 },
    { "id": 79, "subscription_id": 79, "is_active": false, "wait_for": 45 },
    { "id": 80, "subscription_id": 80, "is_active": false, "wait_for": 43 },
    { "id": 81, "subscription_id": 81, "is_active": true, "wait_for": 56 },
    { "id": 82, "subscription_id": 82, "is_active": false, "wait_for": 68 },
    { "id": 83, "subscription_id": 83, "is_active": true, "wait_for": 35 },
    { "id": 84, "subscription_id": 84, "is_active": false, "wait_for": 19 },
    { "id": 85, "subscription_id": 85, "is_active": true, "wait_for": 26 },
    { "id": 86, "subscription_id": 86, "is_active": false, "wait_for": 62 },
    { "id": 87, "subscription_id": 87, "is_active": true, "wait_for": 85 },
    { "id": 88, "subscription_id": 88, "is_active": false, "wait_for": 24 },
    { "id": 89, "subscription_id": 89, "is_active": true, "wait_for": 76 },
    { "id": 90, "subscription_id": 90, "is_active": false, "wait_for": 72 },
    { "id": 91, "subscription_id": 91, "is_active": false, "wait_for": 84 },
    { "id": 92, "subscription_id": 92, "is_active": true, "wait_for": 98 },
    { "id": 93, "subscription_id": 93, "is_active": true, "wait_for": 56 },
    { "id": 94, "subscription_id": 94, "is_active": true, "wait_for": 74 },
    { "id": 95, "subscription_id": 95, "is_active": false, "wait_for": 48 },
    { "id": 96, "subscription_id": 96, "is_active": true, "wait_for": 45 },
    { "id": 97, "subscription_id": 97, "is_active": true, "wait_for": 5 },
    { "id": 98, "subscription_id": 98, "is_active": false, "wait_for": 98 },
    { "id": 99, "subscription_id": 99, "is_active": true, "wait_for": 39 },
    { "id": 100, "subscription_id": 100, "is_active": true, "wait_for": 24 }
  ]
}
